{
  "categories": [
    { 
    	"id": 1, 
    	"title": "javascript",
    	"topics": [
    		{
    			"title": "JavaScript Tutorial",
    			"description": "JavaScript description"
    		},
    		{
    			"title": "JavaScript Tutorial 2",
    			"description": "JavaScript description 2"
    		}
    	] 
    },
    { 
    	"id": 2, 
    	"title": "HTML",
    	"topics": [
    		{
    			"title": "HTML Tutorial",
    			"description": "HTML description"
    		},
    		{
    			"title": "HTML Tutorial 2",
    			"description": "HTML description 2"
    		}
    	]  
    },
    { 
    	"id": 3, 
    	"title": "CSS",
    	"topics": [
    		{
    			"title": "CSS Tutorial",
    			"description": "CSS description"
    		},
    		{
    			"title": "CSS Tutorial 2",
    			"description": "CSS description 2"
    		}
    	]   
    },
    { 
    	"id": 4,
     	"title": "Bootstrap",
     	"topics": [
    		{
    			"title": "Bootstrap Tutorial",
    			"description": "Bootstrap description"
    		},
    		{
    			"title": "Bootstrap Tutorial 2",
    			"description": "Bootstrap description 2"
    		}
    	]   
    }
  ]
}